<?xml version="1.0" encoding="utf-8"?>
<!-- Generator: Adobe Illustrator 16.0.0, SVG Export Plug-In . SVG Version: 6.00 Build 0)  -->
<!DOCTYPE svg PUBLIC "-//W3C//DTD SVG 1.1//EN" "http://www.w3.org/Graphics/SVG/1.1/DTD/svg11.dtd">
<svg version="1.1" id="Layer_1" xmlns="http://www.w3.org/2000/svg" xmlns:xlink="http://www.w3.org/1999/xlink" x="0px" y="0px"
	 width="99px" height="20px" viewBox="0 0 99 20" enable-background="new 0 0 99 20" xml:space="preserve">
<g>
	<g>
		<g>
			<defs>
				<rect id="SVGID_1_" x="0.444" width="18.192" height="19.377"/>
			</defs>
			<clipPath id="SVGID_2_">
				<use xlink:href="#SVGID_1_"  overflow="visible"/>
			</clipPath>
			<path clip-path="url(#SVGID_2_)" fill="#FFFFFF" d="M18.463,14.662c-0.039-0.115-0.138-0.197-0.259-0.215l-2.459-0.346
				l-1.1-2.146c-0.107-0.209-0.454-0.209-0.562,0l-1.098,2.146l-2.46,0.346c-0.122,0.018-0.221,0.1-0.256,0.215
				c-0.037,0.117-0.006,0.246,0.084,0.328l1.773,1.666l-0.419,2.35c-0.021,0.119,0.026,0.238,0.122,0.311
				c0.098,0.07,0.227,0.082,0.332,0.027l2.203-1.117l2.204,1.117c0.046,0.023,0.093,0.033,0.143,0.033
				c0.066,0,0.133-0.021,0.188-0.061c0.098-0.072,0.145-0.191,0.123-0.311l-0.418-2.35l1.773-1.666
				C18.466,14.908,18.5,14.779,18.463,14.662L18.463,14.662z M16.046,16.312c-0.076,0.072-0.113,0.182-0.096,0.287l0.338,1.895
				l-1.78-0.904c-0.046-0.023-0.094-0.033-0.144-0.033c-0.049,0-0.098,0.01-0.142,0.033l-1.78,0.904l0.335-1.895
				c0.02-0.105-0.017-0.215-0.095-0.287l-1.417-1.33l1.969-0.277c0.102-0.012,0.192-0.076,0.238-0.168l0.892-1.74l0.892,1.74
				c0.046,0.092,0.136,0.156,0.237,0.168l1.97,0.277L16.046,16.312z M16.046,16.312"/>
		</g>
		<path fill="#FFFFFF" d="M3.609,1.029h10.756v9.491h0.634V0.396H0.444v18.981h9.493v-0.633H3.609V1.029z M1.08,18.744V1.029h1.896
			v17.715H1.08z M1.08,18.744"/>
		<path fill="#FFFFFF" d="M12.783,7.989V3.56H5.191v4.429H12.783z M5.825,4.192h6.327v3.164H5.825V4.192z M5.825,4.192"/>
		<rect x="6.773" y="4.825" fill="#FFFFFF" width="4.429" height="0.632"/>
		<rect x="6.773" y="6.089" fill="#FFFFFF" width="4.429" height="0.634"/>
	</g>
	<g>
		<path fill="#FFFFFF" d="M98.557,9.688c0-5.197-4.23-9.425-9.426-9.425c-5.197,0-9.426,4.228-9.426,9.425
			c0,2.746,1.18,5.222,3.059,6.945l-0.008,0.01l0.305,0.256c0.02,0.018,0.043,0.029,0.062,0.047c0.162,0.135,0.33,0.26,0.502,0.385
			c0.055,0.041,0.109,0.08,0.168,0.121c0.182,0.125,0.369,0.246,0.562,0.357c0.043,0.025,0.084,0.049,0.125,0.074
			c0.209,0.119,0.426,0.232,0.646,0.334c0.014,0.01,0.029,0.016,0.047,0.025c0.717,0.33,1.482,0.574,2.279,0.721
			c0.023,0.002,0.043,0.006,0.064,0.01c0.246,0.043,0.498,0.076,0.754,0.1c0.029,0.004,0.061,0.006,0.092,0.008
			c0.252,0.021,0.508,0.035,0.768,0.035c0.256,0,0.51-0.014,0.76-0.035c0.033-0.002,0.066-0.004,0.098-0.006
			c0.252-0.023,0.5-0.057,0.746-0.098c0.021-0.004,0.043-0.01,0.064-0.014c0.787-0.139,1.541-0.379,2.246-0.703
			c0.027-0.014,0.055-0.023,0.08-0.035c0.213-0.102,0.418-0.209,0.619-0.322c0.051-0.027,0.102-0.057,0.15-0.086
			c0.184-0.111,0.367-0.221,0.543-0.344c0.064-0.043,0.125-0.088,0.189-0.135c0.15-0.105,0.299-0.219,0.439-0.336
			c0.031-0.025,0.068-0.049,0.1-0.074l0.312-0.262l-0.01-0.008C97.365,14.934,98.557,12.449,98.557,9.688L98.557,9.688z
			 M80.391,9.688c0-4.82,3.92-8.739,8.74-8.739s8.738,3.919,8.738,8.739c0,2.597-1.139,4.933-2.941,6.535
			c-0.102-0.068-0.203-0.133-0.309-0.186l-2.9-1.449c-0.26-0.133-0.424-0.393-0.424-0.684v-1.014
			c0.068-0.082,0.141-0.176,0.211-0.279c0.379-0.531,0.68-1.123,0.898-1.756c0.436-0.207,0.715-0.641,0.715-1.127V8.512
			c0-0.297-0.107-0.584-0.303-0.812V6.1c0.016-0.177,0.08-1.182-0.646-2.009c-0.631-0.72-1.654-1.087-3.039-1.087
			c-1.387,0-2.408,0.367-3.039,1.087c-0.727,0.828-0.664,1.833-0.646,2.009v1.6c-0.193,0.227-0.305,0.516-0.305,0.812v1.216
			c0,0.377,0.17,0.728,0.461,0.967c0.277,1.086,0.848,1.911,1.061,2.188v0.994c0,0.279-0.154,0.535-0.398,0.67l-2.711,1.479
			c-0.086,0.047-0.172,0.102-0.258,0.164C81.514,14.588,80.391,12.268,80.391,9.688L80.391,9.688z M94.258,16.76
			c-0.121,0.086-0.242,0.172-0.365,0.252c-0.057,0.037-0.113,0.074-0.172,0.111c-0.162,0.1-0.326,0.193-0.494,0.285
			c-0.037,0.018-0.074,0.035-0.111,0.057c-0.387,0.197-0.787,0.367-1.195,0.504c-0.014,0.006-0.029,0.012-0.045,0.016
			c-0.213,0.072-0.432,0.135-0.652,0.189h-0.002c-0.221,0.055-0.447,0.102-0.672,0.139c-0.008,0-0.014,0.002-0.018,0.004
			c-0.215,0.033-0.43,0.059-0.645,0.078c-0.039,0.004-0.076,0.006-0.115,0.01c-0.213,0.014-0.426,0.023-0.641,0.023
			c-0.219,0-0.434-0.01-0.65-0.025c-0.037-0.002-0.074-0.006-0.111-0.01c-0.217-0.018-0.434-0.045-0.648-0.078l-0.027-0.006
			c-0.453-0.076-0.898-0.188-1.334-0.332c-0.014-0.006-0.027-0.01-0.041-0.014c-0.217-0.074-0.428-0.156-0.637-0.246
			c-0.002,0-0.002,0-0.004-0.002c-0.199-0.084-0.393-0.18-0.586-0.279c-0.025-0.014-0.049-0.025-0.076-0.039
			c-0.174-0.094-0.346-0.193-0.514-0.299C84.451,17.066,84.4,17.035,84.354,17c-0.156-0.1-0.311-0.207-0.461-0.318
			c-0.014-0.012-0.029-0.023-0.045-0.035l0.033-0.02l2.711-1.477c0.465-0.256,0.754-0.744,0.754-1.273v-1.234l-0.078-0.098
			c-0.008-0.008-0.748-0.908-1.029-2.131l-0.029-0.135l-0.117-0.074c-0.166-0.107-0.266-0.285-0.266-0.477V8.512
			c0-0.159,0.068-0.308,0.191-0.421l0.113-0.102V6.082l-0.004-0.044c0-0.01-0.102-0.835,0.48-1.496
			c0.496-0.566,1.344-0.853,2.523-0.853c1.174,0,2.021,0.286,2.518,0.846c0.58,0.653,0.484,1.494,0.484,1.502l-0.002,1.954
			l0.113,0.102c0.121,0.111,0.191,0.26,0.191,0.419v1.216c0,0.243-0.168,0.465-0.406,0.539l-0.17,0.053l-0.055,0.17
			c-0.203,0.627-0.492,1.209-0.855,1.725c-0.09,0.127-0.178,0.238-0.254,0.326l-0.084,0.096v1.268c0,0.551,0.307,1.049,0.801,1.297
			l2.902,1.451c0.018,0.01,0.037,0.018,0.055,0.029C94.332,16.709,94.297,16.732,94.258,16.76L94.258,16.76z M94.258,16.76"/>
	</g>
	<g>
		<g>
			<defs>
				<rect id="SVGID_3_" x="40.845" y="0.153" width="16.981" height="19.158"/>
			</defs>
			<clipPath id="SVGID_4_">
				<use xlink:href="#SVGID_3_"  overflow="visible"/>
			</clipPath>
			<path clip-path="url(#SVGID_4_)" fill="#FFFFFF" d="M57.58,15.93c-1.621-1.613-2.443-3.521-2.443-5.675V7.122
				c0.016-2.389-1.594-3.974-2.973-4.604c-0.395-0.181-0.805-0.321-1.217-0.422V1.894c0-0.96-0.781-1.741-1.741-1.741
				c-0.959,0-1.743,0.781-1.743,1.741v0.23c-0.371,0.102-0.739,0.233-1.095,0.397c-1.525,0.703-3.07,2.397-3.084,4.599v3.135
				c0,2.224-0.785,4.134-2.336,5.675c-0.092,0.092-0.125,0.227-0.087,0.352c0.039,0.125,0.146,0.217,0.274,0.238l3.305,0.572
				c0.617,0.105,1.183,0.191,1.722,0.264c0.609,1.191,1.804,1.955,3.107,1.955c1.305,0,2.498-0.764,3.105-1.957
				c0.537-0.072,1.104-0.158,1.715-0.262l3.305-0.572c0.131-0.021,0.234-0.115,0.273-0.238C57.709,16.156,57.674,16.021,57.58,15.93
				L57.58,15.93z M48.16,1.894c0-0.575,0.467-1.044,1.046-1.044c0.576,0,1.045,0.469,1.045,1.044v0.064
				c-0.696-0.099-1.4-0.096-2.091,0.016V1.894z M49.27,18.613c-0.883,0-1.706-0.436-2.236-1.152c0.779,0.08,1.504,0.119,2.231,0.119
				c0.729,0,1.458-0.039,2.239-0.119C50.977,18.178,50.151,18.613,49.27,18.613L49.27,18.613z M53.971,16.404
				c-0.67,0.115-1.281,0.209-1.861,0.283h-0.002c-0.254,0.031-0.504,0.059-0.744,0.084c-0.004,0-0.004,0-0.004,0
				c-0.227,0.023-0.443,0.041-0.656,0.057c-0.041,0.004-0.082,0.006-0.123,0.008c-0.185,0.012-0.37,0.023-0.553,0.029
				c-0.038,0.002-0.073,0.004-0.112,0.006c-0.435,0.014-0.861,0.014-1.295,0c-0.036-0.002-0.077-0.004-0.116-0.006
				c-0.18-0.006-0.362-0.018-0.545-0.029c-0.042-0.002-0.085-0.004-0.129-0.008c-0.21-0.016-0.419-0.031-0.636-0.053
				c0,0-0.015-0.004-0.022-0.004c-0.24-0.023-0.487-0.053-0.741-0.084h-0.004c-0.58-0.074-1.194-0.168-1.867-0.283l-2.669-0.459
				c1.388-1.588,2.091-3.498,2.091-5.691V7.122c0.011-1.894,1.354-3.357,2.679-3.969c0.394-0.181,0.801-0.316,1.219-0.412
				c0,0,0.007,0,0.011-0.001c0.856-0.192,1.771-0.201,2.64-0.022c0.006,0,0.01,0,0.01,0c0.455,0.094,0.904,0.238,1.336,0.434
				c1.285,0.589,2.576,2.041,2.562,3.969v3.135c0,2.103,0.76,4.056,2.201,5.691L53.971,16.404z M53.971,16.404"/>
		</g>
		<path fill="#FFFFFF" d="M51.439,4.102c-1.349-0.617-3.002-0.617-4.341,0c-0.767,0.354-2.062,1.385-2.072,3.016
			c-0.002,0.192,0.153,0.349,0.344,0.35h0.003c0.189,0,0.347-0.154,0.347-0.346c0.009-1.282,1.05-2.104,1.667-2.387
			c1.159-0.534,2.594-0.534,3.762,0c0.176,0.079,0.381,0.003,0.461-0.173C51.691,4.387,51.615,4.182,51.439,4.102L51.439,4.102z
			 M51.439,4.102"/>
	</g>
</g>
</svg>
