<?xml version="1.0" encoding="utf-8"?>
<!-- (c) ammap.com | SVG map of Iraq - Low -->
<svg xmlns="http://www.w3.org/2000/svg" xmlns:amcharts="http://amcharts.com/ammap" xmlns:xlink="http://www.w3.org/1999/xlink" version="1.1">
	<defs>
		<style type="text/css">
			.land
			{
				fill: #CCCCCC;
				fill-opacity: 1;
				stroke:white;
				stroke-opacity: 1;
				stroke-width:0.5;
			}
		</style>

		<amcharts:ammap projection="mercator" leftLongitude="38.793603" topLatitude="37.380645" rightLongitude="48.575916" bottomLatitude="29.061208"></amcharts:ammap>

		<!-- All areas are listed in the line below. You can use this list in your script. -->
		<!--{id:"IQ-BB"},{id:"IQ-AN"},{id:"IQ-DI"},{id:"IQ-SU"},{id:"IQ-WA"},{id:"IQ-MA"},{id:"IQ-DQ"},{id:"IQ-QA"},{id:"IQ-MU"},{id:"IQ-BA"},{id:"IQ-BG"},{id:"IQ-KA"},{id:"IQ-NA"},{id:"IQ-SD"},{id:"IQ-NI"},{id:"IQ-AR"},{id:"IQ-KI"},{id:"IQ-DA"}-->

	</defs>
	<g>
		<path id="IQ-BB" title="Babil" class="land" d="M46.96,-2100.74L46.96,-2100.74L59.94,-2099.8L62.04,-2087.69L62.45,-2074.93L85.65,-2067.73L101.31,-2044.34L74.54,-2025.09L67.4,-2027.76L59.63,-2031.77L52.11,-2026.75L48.88,-2040.76L45.58,-2068.92L37.56,-2071.72L30.76,-2093.63L19.11,-2101.63L46.96,-2100.74z"/>
		<path id="IQ-AN" title="Al-Anbar" class="land" d="M-60.17,-2229.2L-60.17,-2229.2L-57.28,-2201.78L-43.11,-2190.76L-34.07,-2194.58L-21.96,-2158.76L-4.2,-2141.94L29.91,-2134.64L35.79,-2120.5L44.43,-2118.16L46.4,-2114.25L46.96,-2100.74L19.11,-2101.63L30.76,-2093.63L37.56,-2071.72L15.45,-2074.25L-17.26,-2056.83L11.37,-2028.4L17.27,-2018.91L-3.7,-2007.89L-14.7,-1992.21L-42.74,-1915.41L-84.98,-1952.14L-183.47,-2010.95L-259.69,-2024.85L-251.01,-2033.76L-253.13,-2040.69L-266.71,-2039.68L-281.87,-2113.76L-151.2,-2187.78L-136.94,-2216.14L-137.65,-2242.76L-90.41,-2228.58L-60.17,-2229.2z"/>
		<path id="IQ-DI" title="Diyala" class="land" d="M136.97,-2224.13L136.97,-2224.13L126.9,-2210.89L131.32,-2198.6L119.34,-2201.52L114.35,-2190.86L123.06,-2179.65L112.16,-2156.9L133.29,-2128.88L142.32,-2132.3L140.33,-2122.53L147.01,-2122.64L118.81,-2092.16L79.62,-2099.68L71.53,-2088.41L66.34,-2092.76L62.04,-2087.69L59.94,-2099.8L61.39,-2116.36L46.4,-2114.25L44.43,-2118.16L53.77,-2129.86L56.53,-2154.16L47.09,-2159.77L60.18,-2177.73L60.01,-2199.44L67.43,-2196.65L87.44,-2221.54L100.55,-2215.45L102.44,-2195.81L116.28,-2207.35L132,-2239.19L136.97,-2224.13z"/>
		<path id="IQ-SU" title="As-Sulaymaniyah" class="land" d="M136.97,-2224.13L136.97,-2224.13L132,-2239.19L116.28,-2207.35L102.44,-2195.81L100.55,-2215.45L87.44,-2221.54L86.61,-2229.49L63.35,-2240.59L71.27,-2244.91L77.75,-2264.71L67.24,-2296.03L88.14,-2296.99L67.25,-2313.81L71.29,-2320.27L62.03,-2331.72L90.04,-2342.64L103.72,-2334.24L109.64,-2302.93L121.68,-2304.01L134.15,-2290.53L168.63,-2289.98L149.35,-2280.48L146.98,-2267.28L158.13,-2239.31L143.95,-2237.54L136.97,-2224.13z"/>
		<path id="IQ-WA" title="Wasit" class="land" d="M184.95,-2074.66L184.95,-2074.66L174.69,-2034.11L185.13,-2025.95L183.53,-2015.38L168.06,-2016.92L132.76,-2012.87L112.85,-2040.15L101.31,-2044.34L85.65,-2067.73L62.45,-2074.93L62.04,-2087.69L66.34,-2092.76L71.53,-2088.41L79.62,-2099.68L118.81,-2092.16L147.01,-2122.64L158.92,-2104.6L150.93,-2094.79L154.91,-2084.02L184.95,-2074.66z"/>
		<path id="IQ-MA" title="Maysan" class="land" d="M249.12,-1963.06L249.12,-1963.06L229.63,-1965.81L216.3,-1955.62L193.83,-1960.38L168.06,-2016.92L183.53,-2015.38L185.13,-2025.95L174.69,-2034.11L184.95,-2074.66L214.18,-2050.01L229.25,-2048.88L258.55,-2002.89L249.12,-1963.06z"/>
		<path id="IQ-DQ" title="Dhi-Qar" class="land" d="M216.3,-1955.62L216.3,-1955.62L214.05,-1916.99L183.4,-1912.85L171.28,-1928.06L132.41,-1935.29L136.34,-1992.08L132.76,-2012.87L168.06,-2016.92L193.83,-1960.38L216.3,-1955.62z"/>
		<path id="IQ-QA" title="Al-Qadisiyah" class="land" d="M101.31,-2044.34L101.31,-2044.34L112.85,-2040.15L132.76,-2012.87L136.34,-1992.08L102.6,-1997.55L90.96,-1994.01L95.95,-1988.56L88.18,-1964.88L73.18,-1974.99L55.43,-1987.44L62.14,-1991.32L59.62,-2013.21L67.4,-2027.76L74.54,-2025.09L101.31,-2044.34z"/>
		<path id="IQ-MU" title="Al-Muthannia" class="land" d="M136.34,-1992.08L136.34,-1992.08L132.41,-1935.29L171.28,-1928.06L183.4,-1912.85L193.54,-1883.5L182.62,-1817.29L170.45,-1813.12L72.62,-1821.99L19.33,-1864.55L46.05,-1924.09L67.23,-1947.06L73.18,-1974.99L88.18,-1964.88L95.95,-1988.56L90.96,-1994.01L102.6,-1997.55L136.34,-1992.08z"/>
		<path id="IQ-BA" title="Al-Basrah" class="land" d="M249.12,-1963.06L249.12,-1963.06L248.91,-1946.21L269.15,-1945.82L269.23,-1909.37L286.66,-1898.93L301.78,-1873.67L266.57,-1877.63L264.54,-1884.73L265.32,-1876.94L248.99,-1884.12L220.53,-1879.71L182.62,-1817.29L193.54,-1883.5L183.4,-1912.85L214.05,-1916.99L216.3,-1955.62L229.63,-1965.81L249.12,-1963.06z"/>
		<path id="IQ-BG" title="Baghdad" class="land" d="M59.94,-2099.8L59.94,-2099.8L46.96,-2100.74L46.4,-2114.25L61.39,-2116.36L59.94,-2099.8z"/>
		<path id="IQ-KA" title="Karbala" class="land" d="M37.56,-2071.72L37.56,-2071.72L45.58,-2068.92L48.88,-2040.76L11.37,-2028.4L-17.26,-2056.83L15.45,-2074.25L37.56,-2071.72z"/>
		<path id="IQ-NA" title="An-Najaf" class="land" d="M67.4,-2027.76L67.4,-2027.76L59.62,-2013.21L62.14,-1991.32L55.43,-1987.44L73.18,-1974.99L67.23,-1947.06L46.05,-1924.09L19.33,-1864.55L-42.74,-1915.41L-14.7,-1992.21L-3.7,-2007.89L17.27,-2018.91L11.37,-2028.4L48.88,-2040.76L52.11,-2026.75L59.63,-2031.77L67.4,-2027.76z"/>
		<path id="IQ-SD" title="Sala ad-Din" class="land" d="M-8.46,-2264.64L-8.46,-2264.64L-13.75,-2261.22L-0.36,-2239.25L47.03,-2209.7L63.35,-2240.59L86.61,-2229.49L87.44,-2221.54L67.43,-2196.65L60.01,-2199.44L60.18,-2177.73L47.09,-2159.77L56.53,-2154.16L53.77,-2129.86L44.43,-2118.16L35.79,-2120.5L29.91,-2134.64L-4.2,-2141.94L-21.96,-2158.76L-34.07,-2194.58L-43.11,-2190.76L-57.28,-2201.78L-60.17,-2229.2L-58.67,-2236.29L-27.7,-2238.66L-36.97,-2266.28L-9.88,-2284.1L-8.46,-2264.64z"/>
		<path id="IQ-NI" title="Ninawa" class="land" d="M19.57,-2379.54L19.57,-2379.54L47.85,-2358.87L21.13,-2342.1L-8.77,-2304.39L-9.88,-2284.1L-36.97,-2266.28L-27.7,-2238.66L-58.67,-2236.29L-60.17,-2229.2L-90.41,-2228.58L-137.65,-2242.76L-127.44,-2279.09L-135.01,-2308.9L-132.6,-2330.67L-126.13,-2342.65L-100.37,-2348.84L-67,-2383.29L-59.41,-2367.56L-39.17,-2355.74L-18.74,-2362.1L-10.7,-2373.77L8.88,-2365.72L13.61,-2373.94L8.91,-2381.8L19.57,-2379.54z"/>
		<path id="IQ-AR" title="Arbil" class="land" d="M90.04,-2342.64L90.04,-2342.64L62.03,-2331.72L71.29,-2320.27L67.25,-2313.81L88.14,-2296.99L67.24,-2296.03L35.36,-2288.33L24.57,-2293.09L13.83,-2270.44L-8.46,-2264.64L-9.88,-2284.1L-8.77,-2304.39L21.13,-2342.1L47.85,-2358.87L19.57,-2379.54L35.7,-2394.19L33.94,-2402.14L43.84,-2396.37L44.34,-2377L66.23,-2392L74.79,-2390.56L82.76,-2379.85L79.41,-2363.14L92.21,-2353.92L90.04,-2342.64z"/>
		<path id="IQ-KI" title="Kirkuk" class="land" d="M67.24,-2296.03L67.24,-2296.03L77.75,-2264.71L71.27,-2244.91L63.35,-2240.59L47.03,-2209.7L-0.36,-2239.25L-13.75,-2261.22L-8.46,-2264.64L13.83,-2270.44L24.57,-2293.09L35.36,-2288.33L67.24,-2296.03z"/>
		<path id="IQ-DA" title="Dohuk" class="land" d="M33.94,-2402.14L33.94,-2402.14L35.7,-2394.19L19.57,-2379.54L8.91,-2381.8L13.61,-2373.94L8.88,-2365.72L-10.7,-2373.77L-18.74,-2362.1L-39.17,-2355.74L-59.41,-2367.56L-67,-2383.29L-43.45,-2406.73L18.46,-2393.59L33.94,-2402.14z"/>
	</g>
</svg>
